{
	"name": "dirt",
	"description": "some dirt",
	"transparent": false,
	"solid": true,
	"faces": {
		"X_POS": "FACE_SIDE.png",
		"X_NEG": "FACE_SIDE.png",
		"Z_POS": "FACE_SIDE.png",
		"Z_NEG": "FACE_SIDE.png",
		"Y_POS": "FACE_YP.png",
		"Y_NEG": "FACE_YN.png"
	}
}